[
  {"physical_id": "79f83855-75c6-49a4-8bbd-29a2b10f9f55", "from": "2023-06-19T08:00:00Z", "until": "2023-06-19T18:00:00Z", "reason": "Sicknote"},
  {"physical_id": "1a772ca5-78a5-4715-84a2-08f764f6604f", "from": "2023-06-19T08:00:00Z", "until": "2023-06-19T18:00:00Z", "reason": "Sicknote"},
  {"physical_id": "1ab902cb-13a3-4ced-97df-addf57357673", "from": "2023-06-19T09:00:00Z", "until": "2023-06-19T18:00:00Z", "reason": "Excused"},
  {"physical_id": "302c90af-48eb-4aec-aa90-9a9ef9fad834", "from": "2023-06-19T08:00:00Z", "until": "2023-06-19T12:00:00Z", "reason": "Excused"}
]
