[
  {"name":"Mathe LB1",        "from": "2023-06-19T08:00:00Z", "to": "2023-06-19T10:00:00Z", "auto_checkout": 0,   "groups": ["Team A"],           "responsibles": ["testteacher01"]},
  {"name":"Französisch LB2",  "from": "2023-06-19T08:00:00Z", "to": "2023-06-19T10:00:00Z", "auto_checkout": -1,  "groups": ["Team A"],           "responsibles": ["testteacher02"]},
  {"name":"Physik LB3",       "from": "2023-06-19T08:00:00Z", "to": "2023-06-19T10:00:00Z", "auto_checkout": 0,   "groups": ["Team A"],           "responsibles": ["testteacher03"]},
  {"name":"Deutsch",          "from": "2023-06-19T08:00:00Z", "to": "2023-06-19T10:00:00Z", "auto_checkout": 0,   "groups": ["Team B"],           "responsibles": ["testteacher04"]},

  {"name":"Kunst LB1",        "from": "2023-06-19T10:00:00Z", "to": "2023-06-19T12:00:00Z",                       "groups": ["Team A"],           "responsibles": ["testteacher01", "testteacher02"]},
  {"name":"Politik LB2",      "from": "2023-06-19T10:00:00Z", "to": "2023-06-19T12:00:00Z",                       "groups": ["Team A"],           "responsibles": ["testteacher03"]},
  {"name":"Deutsch LB3",      "from": "2023-06-19T10:00:00Z", "to": "2023-06-19T12:00:00Z",                       "groups": ["Team A"],           "responsibles": ["testteacher04"]},
  {"name":"Mathe",            "from": "2023-06-19T10:00:00Z", "to": "2023-06-19T12:00:00Z",                       "groups": ["Team B"],           "responsibles": ["testteacher05"]},

  {"name":"Spanisch LB1",     "from": "2023-06-19T13:00:00Z", "to": "2023-06-19T15:00:00Z",                       "groups": ["Team A"],           "responsibles": ["testteacher01", "testteacher02"]},
  {"name":"Biologie LB2",     "from": "2023-06-19T13:00:00Z", "to": "2023-06-19T15:00:00Z",                       "groups": ["Team A"],           "responsibles": ["testteacher03"]},
  {"name":"Erdkunde",         "from": "2023-06-19T13:00:00Z", "to": "2023-06-19T15:00:00Z",                       "groups": ["Team B"],           "responsibles": ["testteacher04", "testteacher05"]},

  {"name":"Sport",            "from": "2023-06-19T15:00:00Z", "to": "2023-06-19T16:00:00Z",                       "groups": ["Team A", "Team B"], "responsibles": ["testteacher01", "testteacher02", "testteacher03"]}
]
