[
  {"group": "Team A", "first_name": "Thane","last_name":"Jacqueminot",    "physical_ids": ["dae7748d-a1e0-4eb7-93b6-f59d7b41ff94"]},
  {"group": "Team A", "first_name": "Halley","last_name":"Dewhurst",      "physical_ids": ["8696bd64-5216-429b-ac21-997e23f9cf1e"]},
  {"group": "Team A", "first_name": "Langston","last_name":"Sackes",      "physical_ids": ["42b622f6-6b08-431f-b080-41bf9dbff082"]},
  {"group": "Team A", "first_name": "Bethina","last_name":"Greenly",      "physical_ids": ["8eb49800-d2e0-4bb7-a63e-2df7845c81cc"]},
  {"group": "Team A", "first_name": "Andris","last_name":"Speddin",       "physical_ids": ["70bca1ab-6606-42a4-9fbe-9c3ff15ca66d"]},
  {"group": "Team A", "first_name": "Duff","last_name":"Harback",         "physical_ids": ["f33f35ee-9985-4891-a0b2-ca99ec1de421"]},
  {"group": "Team A", "first_name": "Tildi","last_name":"Crockley",       "physical_ids": ["79f83855-75c6-49a4-8bbd-29a2b10f9f55"]},
  {"group": "Team A", "first_name": "Haze","last_name":"Lawrie",          "physical_ids": ["137df238-e0f9-46b2-b5a3-048557e3cb9e"]},
  {"group": "Team A", "first_name": "Dennie","last_name":"Coatts",        "physical_ids": ["e85d5e49-307d-4597-aa5f-1782cb0e19b4"]},
  {"group": "Team A", "first_name": "Georgina","last_name":"Starrs",      "physical_ids": ["3cd19185-5da3-4d13-b8dc-cc12e35d40a6"]},
  {"group": "Team A", "first_name": "Gayle","last_name":"Mardy",          "physical_ids": ["f314c151-471a-4317-98f4-4440fa207e50"]},
  {"group": "Team A", "first_name": "Dieter","last_name":"Wogden",        "physical_ids": ["9d3c7064-246e-4852-98aa-9ca7a33d43eb"]},
  {"group": "Team A", "first_name": "Katerina","last_name":"Hamprecht",   "physical_ids": ["28584b92-41cd-4ac2-b6eb-39788ba156ee", "aa176cf0-f171-4221-9f26-78333b4998d3"]},
  {"group": "Team A", "first_name": "Alair","last_name":"Moizer", "person_qualifier": "the one without middle names", "physical_ids": ["768ac424-197f-4596-aeeb-3bfc524cfcaa"]},
  {"group": "Team A", "first_name": "Alair","middle_names": "Ailene","last_name":"Moizer", "person_qualifier": "the one with one middle name", "physical_ids": ["d8de8ba2-f64f-4896-8047-f7208822139c", "e8eeb3b7-f3ab-41d6-830c-c61393012beb"]},
  {"group": "Team A", "first_name": "Alair","middle_names": "Bourrel Charlotte","last_name":"Moizer", "person_qualifier": "the one with two middle names, who is also funny and regularly loses their physical ids", "physical_ids": ["8ed2b082-c508-4be1-8862-cccfd5309447", "fe3e709f-ecc3-47b4-b04b-197f541c7eaa", "b437ab13-e8b8-450b-bcf6-cd928ac17794", "49b86da7-8ca4-4164-b98f-3e580ab8d67f"]},
  {"group": "Team A", "first_name": "Paulita","middle_names": "Dieter Maria", "last_name":"Macallam", "physical_ids": ["34d76642-11a1-4c91-905c-17fb41476262"]},
  {"group": "Team A", "first_name": "Paulita","last_name":"Macallam", "physical_ids": ["b2a9c0fd-5906-4093-b3c1-641f28b6b3e7"]},
  {"group": "Team A", "first_name": "Oralle","last_name":"Mote", "person_qualifier": "the funny one", "physical_ids": ["1a772ca5-78a5-4715-84a2-08f764f6604f"]},
  {"group": "Team A", "first_name": "Oralle","last_name":"Mote", "person_qualifier": "the other one", "physical_ids": ["1ab902cb-13a3-4ced-97df-addf57357673"]},
  {"group": "Team B", "first_name": "Mord","last_name":"Strike", "physical_ids": ["2ed33cd2-4f45-41d0-b8e5-cfb0816f376c"]},
  {"group": "Team B", "first_name": "Emmye","last_name":"Ivanshintsev", "physical_ids": ["a2571c13-b0b8-4934-8f3f-bbf6b0ffa624"]},
  {"group": "Team B", "first_name": "Nixie","last_name":"Halloran", "physical_ids": ["302c90af-48eb-4aec-aa90-9a9ef9fad834"]},
  {"group": "Team B", "first_name": "Gaultiero","last_name":"Learmount", "physical_ids": ["3233617a-b024-4245-b7f7-e0525623f50a"]},
  {"group": "Team B", "first_name": "Karrie","last_name":"Greenham"},
  {"group": "Team B", "first_name": "Fionnula","last_name":"Scorah"},
  {"group": "Team B", "first_name": "Bartlet","last_name":"Jonah"},
  {"group": "Team B", "first_name": "Norene","last_name":"Marques"},
  {"group": "Team B", "first_name": "De witt","last_name":"Bramwich"},
  {"group": "Team B", "first_name": "Chadwick","last_name":"Keggin"},
  {"group": "Team B", "first_name": "Zebulon","last_name":"Neilus"},
  {"group": "Team B", "first_name": "Allayne","last_name":"Strattan"},
  {"group": "Team B", "first_name": "Nariko","last_name":"Giggs"},
  {"group": "Team B", "first_name": "Ragnar","last_name":"Boate"},
  {"group": "Team B", "first_name": "Aundrea","last_name":"Wride"},
  {"group": "Team B", "first_name": "Joey","last_name":"Strewthers"},
  {"group": "Team B", "first_name": "Charlotte","last_name":"Rosterne"},
  {"group": "Team B", "first_name": "Robina","last_name":"Banes"},
  {"group": "Team B", "first_name": "Farleigh","last_name":"Giovannelli"},
  {"group": "Team B", "first_name": "Margy","last_name":"Todarini"},
  {"group": "Team C", "first_name": "Camella","last_name":"Staterfield"},
  {"group": "Team C", "first_name": "Lilias","last_name":"Cavey"},
  {"group": "Team C", "first_name": "Elia","last_name":"Pawlicki"},
  {"group": "Team C", "first_name": "Ailene","last_name":"Teresse"},
  {"group": "Team C", "first_name": "Serene","last_name":"Ellens"},
  {"group": "Team C", "first_name": "Ashleigh","last_name":"Cottee"},
  {"group": "Team C", "first_name": "Hephzibah","last_name":"Curuclis"},
  {"group": "Team C", "first_name": "Remus","last_name":"Brownsword"},
  {"group": "Team C", "first_name": "Myles","last_name":"Clac"},
  {"group": "Team C", "first_name": "Wilbur","last_name":"Paternoster"},
  {"group": "Team C", "first_name": "Modesta","last_name":"Dewes"},
  {"group": "Team C", "first_name": "Wally","last_name":"Sandom"},
  {"group": "Team C", "first_name": "Carlin","last_name":"Ivashinnikov"},
  {"group": "Team C", "first_name": "Bradney","last_name":"Lenney"},
  {"group": "Team C", "first_name": "Hurley","last_name":"Titterington"},
  {"group": "Team C", "first_name": "Adrienne","last_name":"Nutter"},
  {"group": "Team C", "first_name": "Mellie","last_name":"Tafani"},
  {"group": "Team C", "first_name": "Bartholomew","last_name":"Hoy"},
  {"group": "Team C", "first_name": "Deeann","last_name":"Hexum"},
  {"group": "Team C", "first_name": "Avie","last_name":"Curner"},
  {"group": "Team C", "first_name": "Niels","last_name":"Mackerness"},
  {"group": "Team C", "first_name": "Saw","last_name":"Tidcombe"},
  {"group": "Team D", "first_name": "Claybourne","last_name":"De Ruel"},
  {"group": "Team D", "first_name": "Brendis","last_name":"Wisedale"},
  {"group": "Team D", "first_name": "Noah","last_name":"Laurencot"},
  {"group": "Team D", "first_name": "Millicent","last_name":"Cottam"},
  {"group": "Team D", "first_name": "Morgana","last_name":"Magwood"},
  {"group": "Team D", "first_name": "Arlen","last_name":"Lorriman"},
  {"group": "Team D", "first_name": "Alanah","last_name":"Firsby"},
  {"group": "Team D", "first_name": "Raphaela","last_name":"Newlove"},
  {"group": "Team D", "first_name": "Breanne","last_name":"Keasy"},
  {"group": "Team D", "first_name": "Willem","last_name":"Detloff"},
  {"group": "Team D", "first_name": "Alwyn","last_name":"Dillinger"},
  {"group": "Team D", "first_name": "Rudie","last_name":"Robe"},
  {"group": "Team D", "first_name": "Hewett","last_name":"Iacovielli"},
  {"group": "Team D", "first_name": "Olia","last_name":"Audiss"},
  {"group": "Team D", "first_name": "Herc","last_name":"Maguire"},
  {"group": "Team D", "first_name": "Farrand","last_name":"Armstead"},
  {"group": "Team D", "first_name": "Pier","last_name":"Ripper"},
  {"group": "Team D", "first_name": "Timmi","last_name":"Willmot"},
  {"group": "Team D", "first_name": "Simmonds","last_name":"Ennion"},
  {"group": "Team D", "first_name": "Eziechiele","last_name":"Balding"},
  {"group": "Team D", "first_name": "Bess","last_name":"Kupker"},
  {"group": "Team D", "first_name": "Hurley","last_name":"Olney"},
  {"group": "Team D", "first_name": "Lee","last_name":"Bourrel"},
  {"group": "Team D", "first_name": "Scotti","last_name":"Tertre"},
  {"group": "Team E", "first_name": "Marty","last_name":"Rust"},
  {"group": "Team E", "first_name": "Ray","last_name":"Ropp"},
  {"group": "Team E", "first_name": "Jessica","last_name":"Clench"},
  {"group": "Team E", "first_name": "Pascale","last_name":"McPharlain"},
  {"group": "Team E", "first_name": "Rosa","last_name":"Nisius"},
  {"group": "Team E", "first_name": "Carly","last_name":"Stilwell"},
  {"group": "Team E", "first_name": "Philippa","last_name":"Jentzsch"},
  {"group": "Team E", "first_name": "Hurlee","last_name":"Cambden"},
  {"group": "Team E", "first_name": "Axel","last_name":"Chestney"},
  {"group": "Team E", "first_name": "Alasteir","last_name":"Loney"},
  {"group": "Team E", "first_name": "Walden","last_name":"Oliva"},
  {"group": "Team E", "first_name": "Lamar","last_name":"Benduhn"},
  {"group": "Team E", "first_name": "Sissy","last_name":"Hallatt"},
  {"group": "Team E", "first_name": "Baldwin","last_name":"Dwyer"},
  {"group": "Team E", "first_name": "Kalina","last_name":"Loder"},
  {"group": "Team E", "first_name": "Stanleigh","last_name":"Nelane"},
  {"group": "Team E", "first_name": "Morganne","last_name":"Bartlomieczak"},
  {"group": "Team E", "first_name": "Nickolaus","last_name":"Malins"},
  {"group": "Team E", "first_name": "Roze","last_name":"Grinyer"},
  {"group": "Team E", "first_name": "Franzen","last_name":"Caulder"},
  {"group": "Team E", "first_name": "Christoper","last_name":"Crowley"},
  {"group": "Team E", "first_name": "Martyn","last_name":"MacRitchie"},
  {"group": "Team E", "first_name": "Phil","last_name":"Hoyte"}
]
